white,#FFFFFF,"rgb(255,255,255)"
snow,#FFFAFA,"rgb(255,250,250)"
honeydew,#F0FFF0,"rgb(240,255,240)"
mintcream,#F5FFFA,"rgb(245,255,250)"
azure,#F0FFFF,"rgb(240,255,255)"
aliceblue,#F0F8FF,"rgb(240,248,255)"
ghostwhite,#F8F8FF,"rgb(248,248,255)"
whitesmoke,#F5F5F5,"rgb(245,245,245)"
seashell,#FFF5EE,"rgb(255,245,238)"
beige,#F5F5DC,"rgb(245,245,220)"
oldlace,#FDF5E6,"rgb(253,245,230)"
floralwhite,#FFFAF0,"rgb(255,250,240)"
ivory,#FFFFF0,"rgb(255,255,240)"
antiquewhite,#FAEBD7,"rgb(250,235,215)"
linen,#FAF0E6,"rgb(250,240,230)"
lavenderblush,#FFF0F5,"rgb(255,240,245)"
mistyrose,#FFE4E1,"rgb(255,228,225)"
